{
   "domain" : {
      "projects" : {
         "projects" : [ {
            "id" : "887b66d5-f8f6-4b2c-9067-b2fe5990def8",
            "dateCreation" : "2020-03-20T00:00:00+03:00",
            "dateFinish" : "2020-01-10T00:00:00+03:00",
            "dateStart" : "2020-01-01T00:00:00+03:00",
            "description" : "description",
            "name" : "Project1",
            "status" : "STATUS_SCHEDULED",
            "userId" : "2056beb3-a07f-4746-80bd-e3db57eaeef6"
         } ]
      },
      "tasks" : {
         "tasks" : [ ]
      },
      "users" : {
         "users" : [ {
            "id" : "dda445c1-f3e3-4d2d-838c-b23ed0e35999",
            "hashPassword" : "8f9bfe9d1345237cb3b2b205864da075",
            "login" : "User",
            "role" : "ROLE_USER"
         }, {
            "id" : "ee7cfd5d-958f-4cb7-94ee-9927747ce628",
            "hashPassword" : "8f9bfe9d1345237cb3b2b205864da075",
            "login" : "User",
            "role" : "ROLE_USER"
         }, {
            "id" : "cb78296c-41cd-41f3-a0d9-e31fdaf57283",
            "hashPassword" : "8f9bfe9d1345237cb3b2b205864da075",
            "login" : "User",
            "role" : "ROLE_USER"
         }, {
            "id" : "7e0e2b13-dc97-4613-86c8-0496f3e83093",
            "hashPassword" : "8f9bfe9d1345237cb3b2b205864da075",
            "login" : "User",
            "role" : "ROLE_USER"
         }, {
            "id" : "4e99f81c-3f3d-43eb-a8d1-3f81af86879d",
            "hashPassword" : "8f9bfe9d1345237cb3b2b205864da075",
            "login" : "User",
            "role" : "ROLE_USER"
         }, {
            "id" : "048b36a7-e7d3-4f16-b817-63f5dcfe7aba",
            "hashPassword" : "e3afed0047b08059d0fada10f400c1e5",
            "login" : "Admin",
            "role" : "ROLE_ADMIN"
         }, {
            "id" : "52fac8ef-da8d-4c89-a3ec-099b703c65c7",
            "hashPassword" : "e3afed0047b08059d0fada10f400c1e5",
            "login" : "Admin",
            "role" : "ROLE_ADMIN"
         }, {
            "id" : "f88b01c0-a058-4387-88b3-ffadbf66862e",
            "hashPassword" : "8f9bfe9d1345237cb3b2b205864da075",
            "login" : "User",
            "role" : "ROLE_USER"
         }, {
            "id" : "2056beb3-a07f-4746-80bd-e3db57eaeef6",
            "hashPassword" : "8f9bfe9d1345237cb3b2b205864da075",
            "login" : "User",
            "role" : "ROLE_USER"
         }, {
            "id" : "87cd6fe3-3d5e-400e-818f-5b8807908f3d",
            "hashPassword" : "e3afed0047b08059d0fada10f400c1e5",
            "login" : "Admin",
            "role" : "ROLE_ADMIN"
         }, {
            "id" : "d1e792bd-72d1-4b7c-a699-2abbbd38d997",
            "hashPassword" : "e3afed0047b08059d0fada10f400c1e5",
            "login" : "Admin",
            "role" : "ROLE_ADMIN"
         }, {
            "id" : "7c3fb556-37bb-40c9-8db3-5b0298308ac1",
            "hashPassword" : "e3afed0047b08059d0fada10f400c1e5",
            "login" : "Admin",
            "role" : "ROLE_ADMIN"
         }, {
            "id" : "a65fa0bd-bd5f-4b4f-8f74-54447580b6a9",
            "hashPassword" : "e3afed0047b08059d0fada10f400c1e5",
            "login" : "Admin",
            "role" : "ROLE_ADMIN"
         }, {
            "id" : "deb96003-7290-4562-8cd2-d292df0e826b",
            "hashPassword" : "e3afed0047b08059d0fada10f400c1e5",
            "login" : "Admin",
            "role" : "ROLE_ADMIN"
         }, {
            "id" : "6f04be02-f0b1-4f9b-aa95-ff7d8c688099",
            "hashPassword" : "8f9bfe9d1345237cb3b2b205864da075",
            "login" : "User",
            "role" : "ROLE_USER"
         }, {
            "id" : "e13ba8ff-1622-4922-aee3-bfb77a041440",
            "hashPassword" : "e3afed0047b08059d0fada10f400c1e5",
            "login" : "Admin",
            "role" : "ROLE_ADMIN"
         } ]
      }
   }
}